\relax 
\providecommand\hyper@newdestlabel[2]{}
\providecommand\BKM@entry[2]{}
\providecommand*\new@tpo@label[2]{}
\catcode `"\active 
\providecommand\HyperFirstAtBeginDocument{\AtBeginDocument}
\HyperFirstAtBeginDocument{\ifx\hyper@anchor\@undefined
\global\let\oldcontentsline\contentsline
\gdef\contentsline#1#2#3#4{\oldcontentsline{#1}{#2}{#3}}
\global\let\oldnewlabel\newlabel
\gdef\newlabel#1#2{\newlabelxx{#1}#2}
\gdef\newlabelxx#1#2#3#4#5#6{\oldnewlabel{#1}{{#2}{#3}}}
\AtEndDocument{\ifx\hyper@anchor\@undefined
\let\contentsline\oldcontentsline
\let\newlabel\oldnewlabel
\fi}
\fi}
\global\let\hyper@last\relax 
\gdef\HyperFirstAtBeginDocument#1{#1}
\providecommand\HyField@AuxAddToFields[1]{}
\providecommand\HyField@AuxAddToCoFields[2]{}
\babel@aux{ngerman}{}
\BKM@entry{id=1,dest={73656374696F6E2E31},srcline={13},srcfile={2E2F4141462E746578}}{536974756174696F6E}
\BKM@entry{id=2,dest={73756273656374696F6E2E312E31},srcline={15},srcfile={2E2F4141462E746578}}{506F6C6974697363686520536974756174696F6E}
\BKM@entry{id=3,dest={73756273656374696F6E2E312E32},srcline={30},srcfile={2E2F4141462E746578}}{4665696E646B72E4667465}
\BKM@entry{id=4,dest={73756273656374696F6E2E312E33},srcline={34},srcfile={2E2F4141462E746578}}{467265756E646C69636865204B72E4667465}
\pgfsyspdfmark {pgfid1}{4736286}{50644710}
\@writefile{toc}{\contentsline {section}{\numberline {1}Situation}{1}{section.1}}
\@writefile{toc}{\contentsline {subsection}{\numberline {1.1}Politische Situation}{1}{subsection.1.1}}
\@writefile{toc}{\contentsline {subsection}{\numberline {1.2}Feindkräfte}{1}{subsection.1.2}}
\BKM@entry{id=5,dest={73756273656374696F6E2E312E34},srcline={37},srcfile={2E2F4141462E746578}}{456967656E65204B72E4667465}
\BKM@entry{id=6,dest={73756273656374696F6E2E312E35},srcline={42},srcfile={2E2F4141462E746578}}{5A6976696C65204C616765}
\BKM@entry{id=7,dest={73756273656374696F6E2E312E36},srcline={45},srcfile={2E2F4141462E746578}}{494544204C616765}
\BKM@entry{id=8,dest={73656374696F6E2E32},srcline={49},srcfile={2E2F4141462E746578}}{4D697373696F6E}
\BKM@entry{id=9,dest={73656374696F6E2E33},srcline={53},srcfile={2E2F4141462E746578}}{41646D696E697374726174697665}
\BKM@entry{id=10,dest={73756273656374696F6E2E332E31},srcline={55},srcfile={2E2F4141462E746578}}{4C6F67697374697363686520566572736F7267756E67}
\pgfsyspdfmark {pgfid2}{4736286}{50644710}
\@writefile{toc}{\contentsline {subsection}{\numberline {1.3}Freundliche Kräfte}{2}{subsection.1.3}}
\@writefile{toc}{\contentsline {subsection}{\numberline {1.4}Eigene Kräfte}{2}{subsection.1.4}}
\@writefile{toc}{\contentsline {subsection}{\numberline {1.5}Zivile Lage}{2}{subsection.1.5}}
\@writefile{toc}{\contentsline {subsection}{\numberline {1.6}IED Lage}{2}{subsection.1.6}}
\@writefile{toc}{\contentsline {section}{\numberline {2}Mission}{2}{section.2}}
\@writefile{toc}{\contentsline {section}{\numberline {3}Administrative}{2}{section.3}}
\@writefile{toc}{\contentsline {subsection}{\numberline {3.1}Logistische Versorgung}{2}{subsection.3.1}}
\BKM@entry{id=11,dest={73656374696F6E2E34},srcline={87},srcfile={2E2F4141462E746578}}{436F6D6D616E6420616E64205369676E616C}
\BKM@entry{id=12,dest={73756273656374696F6E2E342E31},srcline={89},srcfile={2E2F4141462E746578}}{4B6F6D6D756E696B6174696F6E}
\BKM@entry{id=13,dest={73756273656374696F6E2E342E32},srcline={93},srcfile={2E2F4141462E746578}}{447572636866FC6872756E67}
\BKM@entry{id=14,dest={73756273656374696F6E2E342E33},srcline={98},srcfile={2E2F4141462E746578}}{4F52424154}
\pgfsyspdfmark {pgfid3}{4736286}{50644710}
\@writefile{toc}{\contentsline {section}{\numberline {4}Command and Signal}{3}{section.4}}
\@writefile{toc}{\contentsline {subsection}{\numberline {4.1}Kommunikation}{3}{subsection.4.1}}
\@writefile{toc}{\contentsline {subsection}{\numberline {4.2}Durchführung}{3}{subsection.4.2}}
\@writefile{toc}{\contentsline {subsection}{\numberline {4.3}ORBAT}{3}{subsection.4.3}}
\pgfsyspdfmark {pgfid4}{4736286}{50644710}
\pgfsyspdfmark {pgfid5}{4736286}{50644710}
\pgfsyspdfmark {pgfid6}{4736286}{50644710}
