Unit; Uniform; Vest; Headgear; Backpack; Primary Weapon; Primary Attachments; Secondary Weapon; Secondary Attachments; Handgun; Handgun Attachments; Magazines; Items; Linked Items; Binocular; Goggles;
Platoon Lead, Platoon Assist; U_B_CTRG_2; V_Chestrig_rgr; H_MilCap_gry; tf_rt1523g; arifle_MXC_F; optic_Holosight,;;; hgun_P07_F;; MiniGrenade, 2, SmokeShell, 2, 16Rnd_9x21_red_Mag, 2, 30Rnd_65x39_caseless_mag_Tracer, 2, SmokeShellGreen, 1; ACE_fieldDressing, 4, ACE_CableTie, 2, ACE_EarPlugs, 1, ACE_morphine, 1, ACE_MapTools, 1; ItemMap, ItemCompass, ItemWatch, tf_anprc152, ItemGPS; Binocular;;
Squad Leader; U_B_CTRG_2; V_PlateCarrierL_CTRG; H_HelmetB_black; tf_rt1523g; arifle_MX_GL_F; optic_Holosight,;;; hgun_P07_F;; 30Rnd_65x39_caseless_mag_Tracer, 10, 16Rnd_9x21_red_Mag, 2, MiniGrenade, 2, SmokeShell, 2, SmokeShellRed, 1, SmokeShellGreen, 1, 1Rnd_SmokeGreen_Grenade_shell, 2, 1Rnd_SmokeRed_Grenade_shell, 2, 1Rnd_Smoke_Grenade_shell, 1; ACE_fieldDressing, 4, ACE_CableTie, 2, ACE_EarPlugs, 1, ACE_morphine, 1, ACE_MapTools, 1; ItemMap, ItemCompass, ItemWatch, tf_anprc152, ItemGPS; Binocular;;
Automatic Rifleman; U_B_CTRG_1, U_B_CTRG_3; V_PlateCarrierL_CTRG; H_HelmetB_sand, H_HelmetB_black, H_HelmetB_grass; B_AssaultPack_rgr; arifle_MX_SW_F; optic_Holosight, bipod_01_F_snd;;; hgun_P07_F;; MiniGrenade, 2, SmokeShell, 2, 16Rnd_9x21_red_Mag, 2, 100Rnd_65x39_caseless_mag_Tracer, 6; ACE_fieldDressing, 4, ACE_CableTie, 2, ACE_EarPlugs, 1, ACE_morphine, 1; ItemMap, ItemCompass, ItemWatch, tf_anprc152, ItemGPS; Binocular;;
Combat Medic; U_B_CTRG_1, U_B_CTRG_3; V_PlateCarrierL_CTRG; H_HelmetB_sand, H_HelmetB_black, H_HelmetB_grass; B_AssaultPack_rgr; arifle_MX_F; optic_Holosight,;;; hgun_P07_F;; MiniGrenade, 2, SmokeShell, 2, 16Rnd_9x21_red_Mag, 2, 30Rnd_65x39_caseless_mag_Tracer, 10; ACE_morphine, 10, ACE_fieldDressing, 30, ACE_bloodIV, 1, ACE_bloodIV_250, 5, ACE_bloodIV_500, 2, ACE_epinephrine, 8; ItemMap, ItemCompass, ItemWatch, tf_anprc152, ItemGPS; Binocular;;
Driver,Gunner; U_B_CTRG_1, U_B_CTRG_3; V_Chestrig_rgr; H_HelmetCrew_B; B_AssaultPack_rgr; SMG_01_F; optic_Holosight,;;; hgun_P07_F;; MiniGrenade, 2, SmokeShell, 2, 16Rnd_9x21_red_Mag, 2, 30Rnd_45ACP_Mag_SMG_01_Tracer_Red, 3; ACE_fieldDressing, 4, ACE_CableTie, 2, ACE_EarPlugs, 1, ACE_morphine, 1, ToolKit; ItemMap, ItemCompass, ItemWatch, tf_anprc152, ItemGPS; Binocular;;
Team Leader; U_B_CTRG_1, U_B_CTRG_3; V_PlateCarrierL_CTRG; H_HelmetB_sand, H_HelmetB_black, H_HelmetB_grass; B_AssaultPack_rgr; arifle_MX_F; optic_Holosight,;;; hgun_P07_F;; MiniGrenade, 2, SmokeShell, 2, 16Rnd_9x21_red_Mag, 2, 30Rnd_45ACP_Mag_SMG_01_Tracer_Red, 10, SmokeShellRed, 1, SmokeShellGreen, 1; ACE_microDAGR; ItemMap, ItemCompass, ItemWatch, tf_anprc152, ItemGPS; Binocular;;
Grenadier; U_B_CTRG_1, U_B_CTRG_3; V_PlateCarrierL_CTRG; H_HelmetB_sand, H_HelmetB_black, H_HelmetB_grass; B_AssaultPack_rgr; arifle_MX_GL_F; optic_Holosight,;;; hgun_P07_F;; MiniGrenade, 2, SmokeShell, 2, 16Rnd_9x21_red_Mag, 2, 30Rnd_65x39_caseless_mag_Tracer, 10, 1Rnd_HE_Grenade_shell, 10; ACE_fieldDressing, 4, ACE_CableTie, 2, ACE_EarPlugs, 1, ACE_morphine, 1, ACE_MapTools, 1, ACE_DefusalKit, 1; ItemMap, ItemCompass, ItemWatch, tf_anprc152, ItemGPS; Binocular;;
Rifleman AT; U_B_CTRG_1, U_B_CTRG_3; V_PlateCarrierL_CTRG; H_HelmetB_sand, H_HelmetB_black, H_HelmetB_grass; B_AssaultPack_rgr; arifle_MX_F; optic_Holosight,; launch_MRAWS_sand_rail_F;; hgun_P07_F;; MiniGrenade, 2, SmokeShell, 2, 16Rnd_9x21_red_Mag, 2, 30Rnd_65x39_caseless_mag_Tracer, 7, MRAWS_HEAT_F, 2, MRAWS_HE_F, 1; ACE_fieldDressing, 4, ACE_CableTie, 2, ACE_EarPlugs, 1, ACE_morphine, 1; ItemMap, ItemCompass, ItemWatch, tf_anprc152, ItemGPS; Binocular;;
Rifleman; U_B_CTRG_1, U_B_CTRG_3; V_PlateCarrierL_CTRG; H_HelmetB_sand, H_HelmetB_black, H_HelmetB_grass; B_AssaultPack_rgr; arifle_MX_F; optic_Holosight,;;; hgun_P07_F;; MiniGrenade, 2, SmokeShell, 2, 16Rnd_9x21_red_Mag, 2, 30Rnd_65x39_caseless_mag_Tracer, 14, 100Rnd_65x39_caseless_mag_Tracer, 2; ACE_fieldDressing, 4, ACE_CableTie, 2, ACE_EarPlugs, 1, ACE_morphine, 1; ItemMap, ItemCompass, ItemWatch, tf_anprc152, ItemGPS; Binocular;;
Recon Teamleader; U_B_CTRG_1; V_PlateCarrierL_CTRG; H_HelmetB_black; tf_rt1523g; arifle_MX_Black_F; optic_Holosight, muzzle_snds_H,;;; hgun_P07_F;; MiniGrenade, 2, SmokeShell, 2, 16Rnd_9x21_red_Mag, 2, 30Rnd_65x39_caseless_mag, 8; ACE_fieldDressing, 4, ACE_CableTie, 2, ACE_EarPlugs, 1, ACE_morphine, 1; ItemMap, ItemCompass, ItemWatch, tf_anprc152, ItemGPS, Laserdesignator; Laserdesignator;;
Recon Rifleman; U_B_CTRG_1; V_PlateCarrierL_CTRG; H_HelmetB_black; B_AssaultPack_rgr; arifle_MX_Black_F; optic_Holosight, muzzle_snds_H,;;; hgun_P07_F;; MiniGrenade, 2, SmokeShell, 2, 16Rnd_9x21_red_Mag, 2, 30Rnd_65x39_caseless_mag, 8; ACE_fieldDressing, 4, ACE_CableTie, 2, ACE_EarPlugs, 1, ACE_morphine, 1; ItemMap, ItemCompass, ItemWatch, tf_anprc152, ItemGPS; Laserdesignator;;
