Unit; Uniform; Vest; Headgear; Backpack; Primary Weapon; Primary Attachments; Secondary Weapon; Secondary Attachments; Handgun; Handgun Attachments; Magazines; Items; Linked Items; Binocular; Goggles;
Mayor; Underwear 1;; Bandana (Surfer), Bandana (Headset), Straw Hat, Booniehat (Olive), Beret (Black), Bandana (Woodland), Bandana (Surfer,  Black), Bandana (Surfer,  Green), Bandana (Sand), Hat (Grey), Cap (Olive); AN/PRC 155 Coyote;;;;;;; RGN Grenade, M83 Smoke Grenade (White); Earplugs, Morphine autoinjector, Bandage (Basic), Cable Tie; Map, Compass, Watch, AN/PRC-148 JEM, GPS; Binoculars;; 
Squad_Leader; Guerilla Outfit (Plain,  Dark), Guerilla Outfit (Plain,  Light), Guerilla Outfit (Pattern), Guerilla Garment, Guerilla Smocks, Guerilla Apparel, Hunting Clothes, Combat Fatigues (Stavrou); Slash Bandolier (Green), Slash Bandolier (Khaki), Tactical Vest (Brown), Tactical Vest (Stavrou), Tactical Vest (Camo), Raven Vest; Bandana (Surfer), Bandana (Headset), Straw Hat, Booniehat (Olive), Beret (Black), Bandana (Woodland), Bandana (Surfer,  Black), Bandana (Surfer,  Green), Bandana (Sand), Hat (Grey), Cap (Olive); AN/PRC 155 Coyote; AKM 7.62 mm;;;;;; RGN Grenade, M83 Smoke Grenade (White), 7.62 mm 30Rnd Tracer (Yellow) Mag; Earplugs, Morphine autoinjector, Bandage (Basic), Cable Tie; Map, Compass, Watch, AN/PRC-148 JEM, GPS; Binoculars;;
Fireteam_Leader; Guerilla Outfit (Plain,  Dark), Guerilla Outfit (Plain,  Light), Guerilla Outfit (Pattern), Guerilla Garment, Guerilla Smocks, Guerilla Apparel, Hunting Clothes, Combat Fatigues (Stavrou); Slash Bandolier (Green), Slash Bandolier (Khaki), Tactical Vest (Brown), Tactical Vest (Stavrou), Tactical Vest (Camo), Raven Vest; Bandana (Surfer), Bandana (Headset), Straw Hat, Booniehat (Olive), Beret (Black), Bandana (Woodland), Bandana (Surfer,  Black), Bandana (Surfer,  Green), Bandana (Sand), Hat (Grey), Cap (Olive); Tactical Backpack (Black), Field Pack (Olive), Assault Pack (Green), Kitbag (Sage);;;;; MP-443 Grach;; RGN Grenade, M83 Smoke Grenade (White), .45 ACP 6Rnd Cylinder; Earplugs, Morphine autoinjector, Bandage (Basic), Cable Tie; Map, Compass, Watch, AN/PRC-148 JEM, GPS; Binoculars;;
Rifleman1; Guerilla Outfit (Plain,  Dark), Guerilla Outfit (Plain,  Light), Guerilla Outfit (Pattern), Guerilla Garment, Guerilla Smocks, Guerilla Apparel, Hunting Clothes, Combat Fatigues (Stavrou); Slash Bandolier (Green), Slash Bandolier (Khaki), Tactical Vest (Brown), Tactical Vest (Stavrou), Tactical Vest (Camo), Raven Vest; Bandana (Surfer), Bandana (Headset), Straw Hat, Booniehat (Olive), Beret (Black), Bandana (Woodland), Bandana (Surfer,  Black), Bandana (Surfer,  Green), Bandana (Sand), Hat (Grey), Cap (Olive); Tactical Backpack (Black), Field Pack (Olive), Assault Pack (Green), Kitbag (Sage);;;;; MP-443 Grach;; RGN Grenade, M83 Smoke Grenade (White), .45 ACP 6Rnd Cylinder; Earplugs, Morphine autoinjector, Bandage (Basic), Cable Tie; Map, Compass, Watch, AN/PRC-148 JEM; Binoculars;;
Rifleman2; Guerilla Outfit (Plain,  Dark), Guerilla Outfit (Plain,  Light), Guerilla Outfit (Pattern), Guerilla Garment, Guerilla Smocks, Guerilla Apparel, Hunting Clothes, Combat Fatigues (Stavrou); Slash Bandolier (Green), Slash Bandolier (Khaki), Tactical Vest (Brown), Tactical Vest (Stavrou), Tactical Vest (Camo), Raven Vest; Bandana (Surfer), Bandana (Headset), Straw Hat, Booniehat (Olive), Beret (Black), Bandana (Woodland), Bandana (Surfer,  Black), Bandana (Surfer,  Green), Bandana (Sand), Hat (Grey), Cap (Olive); Tactical Backpack (Black), Field Pack (Olive), Assault Pack (Green), Kitbag (Sage); M14 (Olive);;;;;; RGN Grenade, M83 Smoke Grenade (White), 7.62mm 20Rnd Mag; Earplugs, Morphine autoinjector, Bandage (Basic), Cable Tie; Map, Compass, Watch, AN/PRC-148 JEM; Binoculars;;
Rifleman3; Guerilla Outfit (Plain,  Dark), Guerilla Outfit (Plain,  Light), Guerilla Outfit (Pattern), Guerilla Garment, Guerilla Smocks, Guerilla Apparel, Hunting Clothes, Combat Fatigues (Stavrou); Slash Bandolier (Green), Slash Bandolier (Khaki), Tactical Vest (Brown), Tactical Vest (Stavrou), Tactical Vest (Camo), Raven Vest; Bandana (Surfer), Bandana (Headset), Straw Hat, Booniehat (Olive), Beret (Black), Bandana (Woodland), Bandana (Surfer,  Black), Bandana (Surfer,  Green), Bandana (Sand), Hat (Grey), Cap (Olive); Tactical Backpack (Black), Field Pack (Olive), Assault Pack (Green), Kitbag (Sage);;;;; MP-443 Grach;; RGN Grenade, M83 Smoke Grenade (White), .45 ACP 6Rnd Cylinder; Earplugs, Morphine autoinjector, Bandage (Basic), Cable Tie; Map, Compass, Watch, AN/PRC-148 JEM; Binoculars;;
Rifleman4; Guerilla Outfit (Plain,  Dark), Guerilla Outfit (Plain,  Light), Guerilla Outfit (Pattern), Guerilla Garment, Guerilla Smocks, Guerilla Apparel, Hunting Clothes, Combat Fatigues (Stavrou); Slash Bandolier (Green), Slash Bandolier (Khaki), Tactical Vest (Brown), Tactical Vest (Stavrou), Tactical Vest (Camo), Raven Vest; Bandana (Surfer), Bandana (Headset), Straw Hat, Booniehat (Olive), Beret (Black), Bandana (Woodland), Bandana (Surfer,  Black), Bandana (Surfer,  Green), Bandana (Sand), Hat (Grey), Cap (Olive); Tactical Backpack (Black), Field Pack (Olive), Assault Pack (Green), Kitbag (Sage); MP5K;;;;;; RGN Grenade, M83 Smoke Grenade (White), 9mm 30Rnd Mag; Earplugs, Morphine autoinjector, Bandage (Basic), Cable Tie; Map, Compass, Watch, AN/PRC-148 JEM; Binoculars;;
Rifleman_AT; Guerilla Outfit (Plain,  Dark), Guerilla Outfit (Plain,  Light), Guerilla Outfit (Pattern), Guerilla Garment, Guerilla Smocks, Guerilla Apparel, Hunting Clothes, Combat Fatigues (Stavrou); Slash Bandolier (Green), Slash Bandolier (Khaki), Tactical Vest (Brown), Tactical Vest (Stavrou), Tactical Vest (Camo), Raven Vest; Bandana (Surfer), Bandana (Headset), Straw Hat, Booniehat (Olive), Beret (Black), Bandana (Woodland), Bandana (Surfer,  Black), Bandana (Surfer,  Green), Bandana (Sand), Hat (Grey), Cap (Olive); Tactical Backpack (Black), Field Pack (Olive), Assault Pack (Green), Kitbag (Sage);;; RPG-7;; MP-443 Grach;; RGN Grenade, M83 Smoke Grenade (White), .45 ACP 6Rnd Cylinder, PG-7VM HEAT Grenade; Earplugs, Morphine autoinjector, Bandage (Basic), Cable Tie; Map, Compass, Watch, AN/PRC-148 JEM; Binoculars;;
Grenadier; Guerilla Outfit (Plain,  Dark), Guerilla Outfit (Plain,  Light), Guerilla Outfit (Pattern), Guerilla Garment, Guerilla Smocks, Guerilla Apparel, Hunting Clothes, Combat Fatigues (Stavrou); Slash Bandolier (Green), Slash Bandolier (Khaki), Tactical Vest (Brown), Tactical Vest (Stavrou), Tactical Vest (Camo), Raven Vest; Bandana (Surfer), Bandana (Headset), Straw Hat, Booniehat (Olive), Beret (Black), Bandana (Woodland), Bandana (Surfer,  Black), Bandana (Surfer,  Green), Bandana (Sand), Hat (Grey), Cap (Olive); Tactical Backpack (Black), Field Pack (Olive), Assault Pack (Green), Kitbag (Sage); AK-12 GL 7.62 mm;;;;;; M83 Smoke Grenade (White), 7.62 mm 30Rnd Tracer (Yellow) Mag, 40 mm HE Grenade Round; Earplugs, Morphine autoinjector, Bandage (Basic), Cable Tie; Map, Compass, Watch, AN/PRC-148 JEM; Binoculars;;
Doctor; Marshal Clothes;; Bandana (Surfer), Bandana (Headset), Straw Hat, Booniehat (Olive), Beret (Black), Bandana (Woodland), Bandana (Surfer,  Black), Bandana (Surfer,  Green), Bandana (Sand), Hat (Grey), Cap (Olive); Tactical Backpack (Black), Field Pack (Olive), Assault Pack (Green), Kitbag (Sage);;;;;;; M83 Smoke Grenade (White); Earplugs, Morphine autoinjector, Bandage (Basic), Blood IV (250ml), Epinephrine autoinjector; Map, Compass, Watch, AN/PRC-148 JEM; Binoculars;;
