Unit; Uniform; Vest; Headgear; Backpack; Primary Weapon; Primary Attachments; Secondary Weapon; Secondary Attachments; Handgun; Handgun Attachments; Magazines; Items; Linked Items; Binocular; Goggles;
C_IDAP_Man_AidWorker_01_F; Aid Worker Clothes (Cargo) IDAP; Identification Vest IDAP; Basic Helmet (White); Leg Strap Bag (Coyote);;;;;;;; Earplugs, Morphine autoinjector, Bandage (Basic); Map, Compass, Watch, GPS; Binoculars; G_WirelessEarpiece_F; 
C_IDAP_Man_AidWorker_02_F; Aid Worker Clothes (Jeans) IDAP, Aid Worker Clothes (Tee,  Shorts) IDAP, Aid Worker Clothes (Polo) IDAP; Safety Vest (Yellow), Safety Vest (Blue), Safety Vest (Orange); Basic Helmet (White); Leg Strap Bag (Black);;;;;;;; Earplugs, Morphine autoinjector, Bandage (Basic); Map, Compass, Watch, GPS; Binoculars; G_WirelessEarpiece_F;
C_IDAP_Man_Paramedic_01_F; Paramedic Outfit; Identification Vest (Red Crystal); Basic Helmet (White); Messenger Bag IDAP;;;;;;;; Earplugs, Morphine autoinjector, Bandage (Basic), Blood IV (1000ml), Blood IV (250ml), Blood IV (500ml), Epinephrine autoinjector, Cable Tie; Map, Compass, Watch, GPS; Binoculars; G_WirelessEarpiece_F;
