Unit; Uniform; Vest; Headgear; Backpack; Primary Weapon; Primary Attachments; Secondary Weapon; Secondary Attachments; Handgun; Handgun Attachments; Magazines; Items; Linked Items; Binocular; Goggles
Platoon Lead, Platoon Assist; CTRG Combat Uniform (Tee); Chest Rig (Green); Military Cap (Grey); RT-1523G (ASIP); MXC; Mk17 Holosight,;;; P99;; RGN Grenade, M83 Smoke Grenade (White), 9 mm 16Rnd Reload Tracer (Red) Mag, 6.5mm 30Rnd Tracer Mag, M18 Smoke Grenade (Green); Bandage (Basic), Cable Tie, Earplugs, Morphine autoinjector, Map Tools; Map, Compass, Watch, AN/PRC-152, GPS; Binoculars;
Squad Leader; CTRG Combat Uniform (Tee); CTRG Plate Carrier Rig Mk.1 (Light); Combat Helmet (Black); RT-1523G (ASIP); MX 3GL; Mk17 Holosight,;;; P99;; 6.5mm 30Rnd Tracer Mag, 9 mm 16Rnd Reload Tracer (Red) Mag, RGN Grenade, M83 Smoke Grenade (White), M18 Smoke Grenade (Red), M18 Smoke Grenade (Green), Smoke Round (Green), Smoke Round (Red), Smoke Round (White); Bandage (Basic), Cable Tie, Earplugs, Morphine autoinjector, Map Tools; Map, Compass, Watch, AN/PRC-152, GPS; Binoculars;
Automatic Rifleman; CTRG Combat Uniform, CTRG Combat Uniform (Rolled-up); CTRG Plate Carrier Rig Mk.1 (Light); Combat Helmet (Sand), Combat Helmet (Black), Combat Helmet (Grass); Assault Pack (Green); MX LSW; Mk17 Holosight, Bipod (Sand) NATO;;; P99;; RGN Grenade, M83 Smoke Grenade (White), 9 mm 16Rnd Reload Tracer (Red) Mag, 6.5mm 100Rnd Tracer Mag; Bandage (Basic), Cable Tie, Earplugs, Morphine autoinjector; Map, Compass, Watch, AN/PRC-152, GPS; Binoculars;
Combat Medic; CTRG Combat Uniform, CTRG Combat Uniform (Rolled-up); CTRG Plate Carrier Rig Mk.1 (Light); Combat Helmet (Sand), Combat Helmet (Black), Combat Helmet (Grass); Assault Pack (Green); MX; Mk17 Holosight,;;; P99;; RGN Grenade, M83 Smoke Grenade (White), 9 mm 16Rnd Reload Tracer (Red) Mag, 6.5mm 30Rnd Tracer Mag; Morphine autoinjector, Bandage (Basic), Blood IV (1000ml), Blood IV (250ml), Blood IV (500ml), Epinephrine autoinjector; Map, Compass, Watch, AN/PRC-152, GPS; Binoculars;
Driver,Gunner; CTRG Combat Uniform, CTRG Combat Uniform (Rolled-up); Chest Rig (Green); Crew Helmet NATO; Assault Pack (Green); Vector SMG; Mk17 Holosight,;;; P99;; RGN Grenade, M83 Smoke Grenade (White), 9 mm 16Rnd Reload Tracer (Red) Mag, .45 ACP 30Rnd Vermin Tracers (Red) Mag; Bandage (Basic), Cable Tie, Earplugs, Morphine autoinjector, Toolkit; Map, Compass, Watch, AN/PRC-152, GPS; Binoculars;
Team Leader; CTRG Combat Uniform, CTRG Combat Uniform (Rolled-up); CTRG Plate Carrier Rig Mk.1 (Light); Combat Helmet (Sand), Combat Helmet (Black), Combat Helmet (Grass); Assault Pack (Green); MX; Mk17 Holosight,;;; P99;; RGN Grenade, M83 Smoke Grenade (White), 9 mm 16Rnd Reload Tracer (Red) Mag, .45 ACP 30Rnd Vermin Tracers (Red) Mag, M18 Smoke Grenade (Red), M18 Smoke Grenade (Green); MicroDAGR GPS; Map, Compass, Watch, AN/PRC-152, GPS; Binoculars;
Grenadier; CTRG Combat Uniform, CTRG Combat Uniform (Rolled-up); CTRG Plate Carrier Rig Mk.1 (Light); Combat Helmet (Sand), Combat Helmet (Black), Combat Helmet (Grass); Assault Pack (Green); MX 3GL; Mk17 Holosight,;;; P99;; RGN Grenade, M83 Smoke Grenade (White), 9 mm 16Rnd Reload Tracer (Red) Mag, 6.5mm 30Rnd Tracer Mag, 40 mm HE Grenade Round; Bandage (Basic), Cable Tie, Earplugs, Morphine autoinjector, Map Tools, Defusal Kit; Map, Compass, Watch, AN/PRC-152, GPS; Binoculars;
Rifleman AT; CTRG Combat Uniform, CTRG Combat Uniform (Rolled-up); CTRG Plate Carrier Rig Mk.1 (Light); Combat Helmet (Sand), Combat Helmet (Black), Combat Helmet (Grass); Assault Pack (Green); MX; Mk17 Holosight,; MAAWS Mk4 Mod 0 (Sand);; P99;; RGN Grenade, M83 Smoke Grenade (White), 9 mm 16Rnd Reload Tracer (Red) Mag, 6.5mm 30Rnd Tracer Mag, MAAWS HEAT 75 Round, MAAWS HE 44 Round; Bandage (Basic), Cable Tie, Earplugs, Morphine autoinjector; Map, Compass, Watch, AN/PRC-152, GPS; Binoculars;
Rifleman; CTRG Combat Uniform, CTRG Combat Uniform (Rolled-up); CTRG Plate Carrier Rig Mk.1 (Light); Combat Helmet (Sand), Combat Helmet (Black), Combat Helmet (Grass); Assault Pack (Green); MX; Mk17 Holosight,;;; P99;; RGN Grenade, M83 Smoke Grenade (White), 9 mm 16Rnd Reload Tracer (Red) Mag, 6.5mm 30Rnd Tracer Mag, 6.5mm 100Rnd Tracer Mag; Bandage (Basic), Cable Tie, Earplugs, Morphine autoinjector; Map, Compass, Watch, AN/PRC-152, GPS; Binoculars;
Recon Teamleader; CTRG Combat Uniform; CTRG Plate Carrier Rig Mk.1 (Light); Combat Helmet (Black); RT-1523G (ASIP); MX (Black); Mk17 Holosight, Sound Suppressor (6.5 mm),;;; P99;; RGN Grenade, M83 Smoke Grenade (White), 9 mm 16Rnd Reload Tracer (Red) Mag, 6.5mm 30Rnd Mag; Bandage (Basic), Cable Tie, Earplugs, Morphine autoinjector; Map, Compass, Watch, AN/PRC-152, GPS, Laser Designator (Sand); Laser Designator (Sand);
Recon Rifleman; CTRG Combat Uniform; CTRG Plate Carrier Rig Mk.1 (Light); Combat Helmet (Black); Assault Pack (Green); MX (Black); Mk17 Holosight, Sound Suppressor (6.5 mm),;;; P99;; RGN Grenade, M83 Smoke Grenade (White), 9 mm 16Rnd Reload Tracer (Red) Mag, 6.5mm 30Rnd Mag; Bandage (Basic), Cable Tie, Earplugs, Morphine autoinjector; Map, Compass, Watch, AN/PRC-152, GPS; Laser Designator (Sand);
